[
{
"id" : 1,
"description" : "حساسية البيض",
"isActive" : 0
},
{
"id" : 2,
"description" : "حساسية القمح (الغلوتين)",
"isActive" : 0
},
{
"id" : 4,
"description" : "حساسية اللاكتوز",
"isActive" : 0
},
{
"id" : 6,
"description" : "حساسية مأكولات بحرية وأسماك",
"isActive" : 0
},
{
"id" : 7,
"description" : "حساسية أجبان وألبان",
"isActive" : 0
},
{
"id" : 9,
"description" : "لا شيء",
"isActive" : 0
},
{
"id" : 10,
"description" : "مرض التفول",
"isActive" : 0
},
{
"id" : 12,
"description" : "حساسية مكسرات",
"isActive" : 0
},
{
"id" : 13,
"description" : "حساسية بقوليات",
"isActive" : 0
},
{
"id" : 14,
"description" : "حساسية من الفاكهة (الفركتوز)",
"isActive" : 0
}
]
