[
	{
		"id" : 1,
		"description" : "مائي",
		"refTamreenActivityId" : 1
	},
	{
		"id" : 2,
		"description" : "حركات خفيفة",
		"refTamreenActivityId" : 1
	},
	{
		"id" : 3,
		"description" : "حركات قوية",
		"refTamreenActivityId" : 1
	},
	{
		"id" : 4,
		"description" : "خطوات من 6 الى 8 انش",
		"refTamreenActivityId" : 1
	},
	{
		"id" : 5,
		"description" : "خطوات من 10 الى 12 انش",
		"refTamreenActivityId" : 1
	},
	{
		"id" : 6,
		"description" : "تمارين الظهر",
		"refTamreenActivityId" : 2
	},
	{
		"id" : 7,
		"description" : "فردي او زوجي",
		"refTamreenActivityId" : 3
	},
	{
		"id" : 8,
		"description" : "منافسة",
		"refTamreenActivityId" : 3
	},
	{
		"id" : 9,
		"description" : "رمي ، امساك",
		"refTamreenActivityId" : 4
	},
	{
		"id" : 10,
		"description" : "خطوة سريعة او بطيئة",
		"refTamreenActivityId" : 4
	},
	{
		"id" : 11,
		"description" : "سلال الرماية",
		"refTamreenActivityId" : 4
	},
	{
		"id" : 12,
		"description" : "كرسي متحرك",
		"refTamreenActivityId" : 4
	},
	{
		"id" : 13,
		"description" : "مباراة ",
		"refTamreenActivityId" : 4
	},
	{
		"id" : 14,
		"description" : "بطيء (16 كم /ساعة)",
		"refTamreenActivityId" : 5
	},
	{
		"id" : 15,
		"description" : "متوسط (20 كم/ساعة)",
		"refTamreenActivityId" : 5
	},
	{
		"id" : 16,
		"description" : "سريع ( 24 كم/ساعة)",
		"refTamreenActivityId" : 5
	},
	{
		"id" : 17,
		"description" : "سريع جدا (28 كم/ساعة)",
		"refTamreenActivityId" : 5
	},
	{
		"id" : 18,
		"description" : "سباق السرعة اكثر من 30 كم/ ساعة",
		"refTamreenActivityId" : 5
	},
	{
		"id" : 19,
		"description" : "خفيفة جدا ( 50 واط)",
		"refTamreenActivityId" : 6
	},
	{
		"id" : 20,
		"description" : "خفيفة (100 واط)",
		"refTamreenActivityId" : 6
	},
	{
		"id" : 21,
		"description" : "متوسطة (150 واط)",
		"refTamreenActivityId" : 6
	},
	{
		"id" : 22,
		"description" : "ثقيلة (200 واط)",
		"refTamreenActivityId" : 6
	},
	{
		"id" : 23,
		"description" : "ثقيلة جدا (250 واط)",
		"refTamreenActivityId" : 6
	},
	{
		"id" : 24,
		"description" : "جبلي",
		"refTamreenActivityId" : 6
	},
	{
		"id" : 25,
		"description" : "لكم الكيس",
		"refTamreenActivityId" : 7
	},
	{
		"id" : 26,
		"description" : "القتال",
		"refTamreenActivityId" : 7
	},
	{
		"id" : 27,
		"description" : "تمارين الظهر",
		"refTamreenActivityId" : 8
	},
	{
		"id" : 28,
		"description" : "القفز والسحب",
		"refTamreenActivityId" : 8
	},
	{
		"id" : 29,
		"description" : "تمارين الضغط و القرفصاء",
		"refTamreenActivityId" : 8
	},
	{
		"id" : 30,
		"description" : "تمارين عامة",
		"refTamreenActivityId" : 9
	},
	{
		"id" : 31,
		"description" : "تميرير الكرة",
		"refTamreenActivityId" : 10
	},
	{
		"id" : 32,
		"description" : "مباراة ",
		"refTamreenActivityId" : 10
	},
	{
		"id" : 33,
		"description" : "الصحن الطائر",
		"refTamreenActivityId" : 11
	},
	{
		"id" : 34,
		"description" : "عربة كهربائية",
		"refTamreenActivityId" : 12
	},
	{
		"id" : 35,
		"description" : "سحب المضارب",
		"refTamreenActivityId" : 12
	},
	{
		"id" : 36,
		"description" : "حمل المضارب",
		"refTamreenActivityId" : 12
	},
	{
		"id" : 37,
		"description" : "كرة اليد",
		"refTamreenActivityId" : 13
	},
	{
		"id" : 38,
		"description" : "تسلق",
		"refTamreenActivityId" : 14
	},
	{
		"id" : 39,
		"description" : "الهوكي",
		"refTamreenActivityId" : 15
	},
	{
		"id" : 40,
		"description" : "هرولة",
		"refTamreenActivityId" : 16
	},
	{
		"id" : 41,
		"description" : "هرولة ومشي معا",
		"refTamreenActivityId" : 16
	},
	{
		"id" : 42,
		"description" : "بطيء",
		"refTamreenActivityId" : 17
	},
	{
		"id" : 43,
		"description" : "متوسط",
		"refTamreenActivityId" : 17
	},
	{
		"id" : 44,
		"description" : "سريع",
		"refTamreenActivityId" : 17
	},
	{
		"id" : 45,
		"description" : "ركوب الزورق",
		"refTamreenActivityId" : 18
	},
	{
		"id" : 46,
		"description" : "فنون قتالية",
		"refTamreenActivityId" : 19
	},
	{
		"id" : 47,
		"description" : "تسلية",
		"refTamreenActivityId" : 20
	},
	{
		"id" : 48,
		"description" : "مباراة ",
		"refTamreenActivityId" : 20
	},
	{
		"id" : 49,
		"description" : "التجديف",
		"refTamreenActivityId" : 21
	},
	{
		"id" : 50,
		"description" : "تسلق صخور",
		"refTamreenActivityId" : 22
	},
	{
		"id" : 51,
		"description" : "رجبي",
		"refTamreenActivityId" : 23
	},
	{
		"id" : 52,
		"description" : "ركض 8 كيلو متر / ساعة",
		"refTamreenActivityId" : 24
	},
	{
		"id" : 53,
		"description" : "ركض 12 كيلو متر / ساعة",
		"refTamreenActivityId" : 24
	},
	{
		"id" : 54,
		"description" : "ركض 16 كيلو متر / ساعة",
		"refTamreenActivityId" : 24
	},
	{
		"id" : 55,
		"description" : "ركض عبر البلاد",
		"refTamreenActivityId" : 24
	},
	{
		"id" : 56,
		"description" : "التزلج على الجليد",
		"refTamreenActivityId" : 25
	},
	{
		"id" : 57,
		"description" : "التزلج",
		"refTamreenActivityId" : 26
	},
	{
		"id" : 58,
		"description" : "لوح التزلج",
		"refTamreenActivityId" : 27
	},
	{
		"id" : 59,
		"description" : "التزلج على الثلج",
		"refTamreenActivityId" : 28
	},
	{
		"id" : 60,
		"description" : "تسلية",
		"refTamreenActivityId" : 29
	},
	{
		"id" : 61,
		"description" : "مباراة ",
		"refTamreenActivityId" : 29
	},
	{
		"id" : 62,
		"description" : "الدرج",
		"refTamreenActivityId" : 30
	},
	{
		"id" : 63,
		"description" : "تمارين استطالة",
		"refTamreenActivityId" : 31
	},
	{
		"id" : 64,
		"description" : "نهر او بحر او بحيرة",
		"refTamreenActivityId" : 32
	},
	{
		"id" : 65,
		"description" : "أسلوب حر بطيء او متوسط",
		"refTamreenActivityId" : 32
	},
	{
		"id" : 66,
		"description" : "أسلوب حر سريع",
		"refTamreenActivityId" : 32
	},
	{
		"id" : 67,
		"description" : "على الظهر",
		"refTamreenActivityId" : 32
	},
	{
		"id" : 68,
		"description" : "على الجنب",
		"refTamreenActivityId" : 32
	},
	{
		"id" : 69,
		"description" : "على الصدر",
		"refTamreenActivityId" : 32
	},
	{
		"id" : 70,
		"description" : "الفراشة",
		"refTamreenActivityId" : 32
	},
	{
		"id" : 71,
		"description" : "ثنائية",
		"refTamreenActivityId" : 33
	},
	{
		"id" : 72,
		"description" : "فردية",
		"refTamreenActivityId" : 33
	},
	{
		"id" : 73,
		"description" : "سرعة 9 كيلومتر/ساعة",
		"refTamreenActivityId" : 34
	},
	{
		"id" : 74,
		"description" : "سرعة 12 كيلومتر/ساعة",
		"refTamreenActivityId" : 34
	},
	{
		"id" : 75,
		"description" : "سرعة 5 كيلومتر/ساعة",
		"refTamreenActivityId" : 34
	},
	{
		"id" : 76,
		"description" : "سرعة 6 كيلومتر/ساعة",
		"refTamreenActivityId" : 34
	},
	{
		"id" : 77,
		"description" : "متوسط",
		"refTamreenActivityId" : 35
	},
	{
		"id" : 78,
		"description" : "قوي",
		"refTamreenActivityId" : 35
	},
	{
		"id" : 79,
		"description" : "تسلية",
		"refTamreenActivityId" : 36
	},
	{
		"id" : 80,
		"description" : "مباراة ",
		"refTamreenActivityId" : 36
	},
	{
		"id" : 81,
		"description" : "بطيء",
		"refTamreenActivityId" : 37
	},
	{
		"id" : 82,
		"description" : "متوسط",
		"refTamreenActivityId" : 37
	},
	{
		"id" : 83,
		"description" : "سريع",
		"refTamreenActivityId" : 37
	},
	{
		"id" : 84,
		"description" : "سباق مشي ",
		"refTamreenActivityId" : 37
	},
	{
		"id" : 85,
		"description" : "كرة الماء",
		"refTamreenActivityId" : 38
	},
	{
		"id" : 86,
		"description" : "متوسط وخفيف",
		"refTamreenActivityId" : 39
	},
	{
		"id" : 87,
		"description" : "عالي",
		"refTamreenActivityId" : 39
	},
	{
		"id" : 88,
		"description" : "قارب شراعي",
		"refTamreenActivityId" : 40
	}
]
